…
Plotting data can be made easy using R packages in the `tidyverse`
(i.e., `ggplot2` and `tidyr`), once data are put in the long format.

``` r
df_long <- data$X %>%
  as.data.frame %>%
  mutate(grid = data$grid) %>%
  pivot_longer(-grid, names_to = "observation")
df_long
```

    ## # A tibble: 540 x 3
    ##     grid observation value
    ##    <dbl> <chr>       <dbl>
    ##  1     0 X1           289.
    ##  2     0 X11          296.
    ##  3     0 X21          297.
    ##  4     0 X31          290.
    ##  5     0 X41          303.
    ##  6     0 X51          295.
    ##  7     0 X61          301.
    ##  8     0 X71          300.
    ##  9     0 X81          294.
    ## 10     0 X91          300.
    ## # … with 530 more rows
…
